{
  "id": "fe39daf0-e79e-4de6-b39a-a5596490a1e3",
  "timestamp": "2017-11-30T04:53:42.745Z",
  "lang": "en",
  "result": {
    "source": "agent",
    "resolvedQuery": "stores service calls 2017 colorado",
    "action": "return_stores_5calls",
    "actionIncomplete": false,
    "parameters": {
      "date-period": [
        "2017-01-01/2017-12-31"
      ],
      "geo-state-us": "New Mexico"
    },
    "contexts": [],
    "metadata": {
      "intentId": "2729611d-c3cb-4c21-86b7-6a9d8d327502",
      "webhookUsed": "false",
      "webhookForSlotFillingUsed": "false",
      "intentName": "store_calls"
    },
    "fulfillment": {
      "speech": "",
      "messages": [
        {
          "type": 0,
          "speech": ""
        }
      ]
    },
    "score": 0.9399999976158142
  },
  "status": {
    "code": 200,
    "errorType": "success",
    "webhookTimedOut": false
  },
  "sessionId": "77e5facf-b845-482f-a7ce-d1074f79103f"
}